1 10 20
100 200 125
201 210 89
900 1000 174
8064 36864 324
400 14584 276
684 44068 324
622 25761 282
7998 17127 276
2720 3771 238
1759 3924 238
621 4030 238
6908 17476 276
7472 15658 276
5906 36993 324
637 41029 324
4653 29462 308
7768 36103 324
8044 33091 308
5231 20063 279
425 47517 324
61 10916 262
1209 30798 308
9272 18346 279
8749 9910 260
5815 26348 282
6182 19713 279
8794 25948 282
1423 45161 324
6629 12649 268
9739 2938 262
5789 44174 324
1391 11584 268
4425 11527 268
8758 13744 276
9808 10431 255
7004 30179 308
790 10818 262
9894 42853 324
1705 9157 262
7673 23554 282
2088 12193 268
7064 45300 324
7384 40883 324
4370 36071 324
9430 10220 242
1460 8292 262
1897 34002 308
952 22926 279
5114 23600 282
1316 24048 282
6746 46304 324
4809 8335 262
9627 31904 308
1163 24019 282
5742 15864 276
7777 25550 282
5817 33619 308
2785 43481 324
7265 33339 308
829 13869 276
9342 3842 262
2626 47904 324
3293 20248 279
8489 10365 260
6980 42420 324
2842 15074 276
8031 10310 260
1468 36505 324
6918 15871 276
5755 29396 308
1504 43407 324
8486 42371 324
7617 8908 252
3918 7326 262
5968 44241 324
762 33672 308
4352 13874 276
523 35382 311
5480 20257 279
5148 19238 279
5025 48920 324
7379 14679 276
1487 25904 282
4378 29201 308
9368 8237 260
183 18422 279
9781 2798 262
5424 16549 276
8117 10174 260
3315 31324 308
6675 17866 279
9412 17254 276
1273 21550 279
8883 2371 262
4752 34035 308
9096 6669 257
7050 48985 324
7238 4893 262
1027 10542 262
2352 2387 165
5601 575 238
8700 10385 260
2900 42421 324
2686 26257 282
4142 33725 308
8701 45023 324
9715 11263 268
202 753 171
2552 17465 276
1092 10310 262
310 31793 308
9048 17399 276
1077 60 179
6828 11817 268
9393 41348 324
9774 27427 308
4213 35249 311
7757 2447 262
8094 41828 324
7612 17386 276
7397 32923 308
7756 9175 252
6553 16180 276
138 44875 324
5575 12563 268
5910 24709 282
8887 3998 262
293 22116 279
5286 263 238
8996 8015 247
3401 33297 308
3245 47545 324
4332 22653 279
2972 155 217
3373 18039 279
8067 48131 324
5646 13544 276
5705 24377 282
6290 43484 324
7706 7600 177
4474 11622 268
5676 1909 238
1862 23923 282
3214 18288 279
449 39997 324
3869 27404 308
1684 29881 308
738 6778 262
8670 20945 279
8586 10463 260
5891 44342 324
2214 46063 324
6396 41643 324
1 999999 525
999999 1 525
500000 500000 152
500001 500001 113
699999 700001 230
